/* XPM */
static char *mini-addbuddy[] = {
/* width height num_colors chars_per_pixel */
"    30    30       16            1",
/* colors */
". c None",
"# c #000000",
"a c #ffcc66",
"b c #ffcc00",
"c c #cc3300",
"d c #ff6600",
"e c #ffffff",
"f c #555555",
"g c #444444",
"h c #888888",
"i c #aaaaaa",
"j c #bbbbbb",
"k c #dddddd",
"l c #eeeeee",
"m c #cccccc",
"n c #999999",
/* pixels */
"..............................",
"..............####............",
".............#kmhg#...........",
"............#kellig#..........",
"............#keekif#..........",
"............#jmkjhg#..........",
".........####giiigf#..........",
".......##aaff#ffgf#...........",
".......#eeaaaf#####...........",
".......#bbeeafddddd##.........",
".......#bbbbeedddddda#........",
"........#bbbbbeeaaaad#........",
".........#bbbbbbeeddd#........",
"..........#bbbbbbbddd#........",
"..........#bbbbbbbddd#........",
".........##bbbbbbbddd#........",
"........#f#bbbbbbbddd#........",
".......#aa#bbbbbbbddd#........",
"......#bea#bbbbbbbddd#........",
"......#bbeebbbbbbbddd#........",
"......#bbbbbbbbbbbddd##.......",
"......#bbbbbbbbbbbddddd##.....",
".......##bbbbbbbbbeddddaa#....",
".........##bbbbbbbbeeaadd#....",
"...........##bbbbbbbbdddd#....",
".............##bbbbbbdddd#....",
"...............##bbbbddd##....",
".................##bbd##......",
"...................###........",
".............................."
};
