/* XPM */
static char * add_xpm[] = {
"32 32 3 1",
" 	c None",
".	c #00470A",
"+	c #007F19",
"                                ",
"           .........            ",
"           .+++++++.            ",
"           .+++++++.            ",
"           .+++++++.            ",
"           .+++++++.            ",
"           .+++++++.            ",
"           .+++++++.            ",
"           .+++++++.            ",
"           .+++++++.            ",
"           .+++++++.            ",
" ...........+++++++............ ",
" .++++++++++++++++++++++++++++. ",
" .++++++++++++++++++++++++++++. ",
" .++++++++++++++++++++++++++++. ",
" .++++++++++++++++++++++++++++. ",
" .++++++++++++++++++++++++++++. ",
" .++++++++++++++++++++++++++++. ",
" .++++++++++++++++++++++++++++. ",
" .++++++++++++++++++++++++++++. ",
" ...........+++++++............ ",
"           .+++++++.            ",
"           .+++++++.            ",
"           .+++++++.            ",
"           .+++++++.            ",
"           .+++++++.            ",
"           .+++++++.            ",
"           .+++++++.            ",
"           .+++++++.            ",
"           .+++++++.            ",
"           .........            ",
"                                "};
